[
    {
        "channels": {
            "Ch. 1": {
                "attenuation": "", 
                "delay": "37.3+77.4+20", 
                "verbose_name": "ISV-dot #3"
            }, 
            "Ch. 10": {
                "attenuation": "", 
                "delay": "20+40+5+20", 
                "verbose_name": "Stack B-dot"
            }, 
            "Ch. 11": {
                "attenuation": "", 
                "delay": "120+25", 
                "verbose_name": "PT55 Switch"
            }, 
            "Ch. 12": {
                "attenuation": "", 
                "delay": "83+20", 
                "verbose_name": "PT55 MARX"
            }, 
            "Ch. 13": {
                "attenuation": "", 
                "delay": "78.6+20", 
                "verbose_name": "Diverter Switch"
            }, 
            "Ch. 14": {
                "attenuation": "", 
                "delay": "10+5", 
                "verbose_name": "DG535 SRS #2"
            }, 
            "Ch. 15": {
                "attenuation": "", 
                "delay": "4+5", 
                "verbose_name": "Slow Syncro for ZL"
            }, 
            "Ch. 16": {
                "attenuation": "", 
                "delay": "4+5", 
                "verbose_name": "Slow Syncro for ZL"
            }, 
            "Ch. 2": {
                "attenuation": "", 
                "delay": "37.9+77.4+20", 
                "verbose_name": "ISV-dot #2"
            }, 
            "Ch. 3": {
                "attenuation": "", 
                "delay": "14.5+33.5+20", 
                "verbose_name": "MARX CVR"
            }, 
            "Ch. 4": {
                "attenuation": "", 
                "delay": "0", 
                "verbose_name": "Unused"
            }, 
            "Ch. 5": {
                "attenuation": "", 
                "delay": "24.5+40.6+20", 
                "verbose_name": "LWV-dot #1"
            }, 
            "Ch. 6": {
                "attenuation": "", 
                "delay": "78.2+20", 
                "verbose_name": "N H20 Plate"
            }, 
            "Ch. 7": {
                "attenuation": "", 
                "delay": "0", 
                "verbose_name": "Unsued"
            }, 
            "Ch. 8": {
                "attenuation": "", 
                "delay": "3.05+77.2+20", 
                "verbose_name": "TG70 Switch"
            }, 
            "Ch. 9": {
                "attenuation": "", 
                "delay": "3.05+76+15+5", 
                "verbose_name": "TG70 MARX"
            }
        }, 
        "scopename": "TLS1", 
        "scopetype": "ZEBRA", 
        "trigger": "Ch. 14"
    }, 
    {
        "channels": {
            "Ch. 1": {
                "attenuation": "", 
                "delay": "14.5+33.5+20", 
                "verbose_name": "MARX CVR"
            }, 
            "Ch. 10": {
                "attenuation": "", 
                "delay": "3+5+51+10", 
                "verbose_name": "BL1P"
            }, 
            "Ch. 11": {
                "attenuation": "", 
                "delay": "50+20", 
                "verbose_name": "Stack V-dot VS145"
            }, 
            "Ch. 12": {
                "attenuation": "", 
                "delay": "0", 
                "verbose_name": "Unsused"
            }, 
            "Ch. 13": {
                "attenuation": "", 
                "delay": "24.5+40.6+10+5", 
                "verbose_name": "LWV-dot #1"
            }, 
            "Ch. 14": {
                "attenuation": "", 
                "delay": "0", 
                "verbose_name": "Unsused"
            }, 
            "Ch. 15": {
                "attenuation": "", 
                "delay": "75+20", 
                "verbose_name": "MITL 4P"
            }, 
            "Ch. 16": {
                "attenuation": "", 
                "delay": "75+15", 
                "verbose_name": "MITL 4N"
            }, 
            "Ch. 2": {
                "attenuation": "", 
                "delay": "60+5+20", 
                "verbose_name": "Stack B-dot BS020"
            }, 
            "Ch. 3": {
                "attenuation": "", 
                "delay": "74+20", 
                "verbose_name": "Stack B-dot BS155"
            }, 
            "Ch. 4": {
                "attenuation": "", 
                "delay": "78+20", 
                "verbose_name": "Stack V-dot VS030"
            }, 
            "Ch. 5": {
                "attenuation": "", 
                "delay": "3+5+51+10", 
                "verbose_name": "BL2P"
            }, 
            "Ch. 6": {
                "attenuation": "", 
                "delay": "3+5+51+10", 
                "verbose_name": "BL2N"
            }, 
            "Ch. 7": {
                "attenuation": "", 
                "delay": "3+5+50+10", 
                "verbose_name": "BL3P"
            }, 
            "Ch. 8": {
                "attenuation": "", 
                "delay": "3+5+51.4+10", 
                "verbose_name": "BL3N"
            }, 
            "Ch. 9": {
                "attenuation": "", 
                "delay": "3+5+51+10", 
                "verbose_name": "BL1N"
            }
        }, 
        "scopename": "TLS2", 
        "scopetype": "ZEBRA", 
        "trigger": "Ch. 1"
    }, 
    {
        "channels": {
            "Ch. 1": {
                "attenuation": "", 
                "delay": "14.5+33.5+20+5", 
                "verbose_name": "MARX CVR"
            }, 
            "Ch. 2": {
                "attenuation": "", 
                "delay": "33.5+56+20+5", 
                "verbose_name": "MARX Voltage"
            }, 
            "Ch. 3": {
                "attenuation": "", 
                "delay": "15.24+20", 
                "verbose_name": "MTG Voltage"
            }, 
            "Ch. 4": {
                "attenuation": "", 
                "delay": "83+20+5", 
                "verbose_name": "PT55 MARX"
            }
        }, 
        "scopename": "TDS1", 
        "scopetype": "ZEBRA", 
        "trigger": "Ch. 3"
    }, 
    {
        "channels": {
            "Ch. 1": {
                "attenuation": "", 
                "delay": "83+20", 
                "verbose_name": "PT55 MARX"
            }, 
            "Ch. 2": {
                "attenuation": "", 
                "delay": "120+20", 
                "verbose_name": "PT55 Switch"
            }, 
            "Ch. 3": {
                "attenuation": "", 
                "delay": "56+20+5", 
                "verbose_name": "MTG CVR"
            }, 
            "Ch. 4": {
                "attenuation": "", 
                "delay": "20", 
                "verbose_name": "DG535 SRS #2"
            }
        }, 
        "scopename": "TDS2", 
        "scopetype": "ZEBRA", 
        "trigger": "Ch. 1"
    }, 
    {
        "channels": {
            "Ch. 1": {
                "attenuation": "", 
                "delay": "15.24+20+6", 
                "verbose_name": "MTG Voltage"
            }, 
            "Ch. 2": {
                "attenuation": "", 
                "delay": "3.05+76+15", 
                "verbose_name": "TG70 MARX"
            }, 
            "Ch. 3": {
                "attenuation": "", 
                "delay": "4", 
                "verbose_name": "Slow Syncro for ZL"
            }, 
            "Ch. 4": {
                "attenuation": "", 
                "delay": "4", 
                "verbose_name": "Slow Syncro for ZL"
            }
        }, 
        "scopename": "TDS3", 
        "scopetype": "ZEBRA", 
        "trigger": "Ch. 1"
    }, 
    {
        "channels": {
            "Ch. 1": {
                "attenuation": "", 
                "delay": "10", 
                "verbose_name": "Receiver output SRS 1"
            }, 
            "Ch. 2": {
                "attenuation": "", 
                "delay": "0", 
                "verbose_name": "Unused"
            }, 
            "Ch. 3": {
                "attenuation": "", 
                "delay": "0", 
                "verbose_name": "Unused"
            }, 
            "Ch. 4": {
                "attenuation": "", 
                "delay": "78+20+5", 
                "verbose_name": "Stack V-dot VS030"
            }
        }, 
        "scopename": "TDS11", 
        "scopetype": "ZEBRA", 
        "trigger": "Ch. 4"
    }, 
    {
        "channels": {
            "Ch. 1": {
                "attenuation": "0", 
                "delay": "46+14.7+5+6.6", 
                "verbose_name": "PCD#1"
            }, 
            "Ch. 2": {
                "attenuation": "6+6", 
                "delay": "46+2.1+9+6.6", 
                "verbose_name": "PCD#2"
            }, 
            "Ch. 3": {
                "attenuation": "0", 
                "delay": "46+10+6.6", 
                "verbose_name": "PCD#3"
            }, 
            "Ch. 4": {
                "attenuation": "6+6+6+6+6", 
                "delay": "33.2+1.5+10", 
                "verbose_name": "SB#2"
            }
        }, 
        "scopename": "TDS3", 
        "scopetype": "DIAG", 
        "trigger": "Ch. 4"
    }, 
    {
        "channels": {
            "Ch. 1": {
                "attenuation": "6+6", 
                "delay": "46+2.1+9+5+6.6", 
                "verbose_name": "PCD#2"
            }, 
            "Ch. 2": {
                "attenuation": "0", 
                "delay": "46+10+5+6.6", 
                "verbose_name": "PCD#3"
            }, 
            "Ch. 3": {
                "attenuation": "0", 
                "delay": "45+9.7+6.6", 
                "verbose_name": "PCD#4"
            }, 
            "Ch. 4": {
                "attenuation": "6+6+6+6+6+6", 
                "delay": "33.2+1.5+10+5", 
                "verbose_name": "SB#2"
            }
        }, 
        "scopename": "TDS4", 
        "scopetype": "DIAG", 
        "trigger": "Ch. 4"
    }, 
    {
        "channels": {
            "Ch. 1": {
                "attenuation": "", 
                "delay": "", 
                "verbose_name": ""
            }, 
            "Ch. 2": {
                "attenuation": "0", 
                "delay": "46+14.7+5+6.6", 
                "verbose_name": "PCD#1"
            }, 
            "Ch. 3": {
                "attenuation": "0", 
                "delay": "46+9.7+5+6.6", 
                "verbose_name": "PCD#4"
            }, 
            "Ch. 4": {
                "attenuation": "6+6+6+6+6+6+6", 
                "delay": "33.2+1.5+10+5+5", 
                "verbose_name": "SB#2"
            }
        }, 
        "scopename": "TDS5", 
        "scopetype": "DIAG", 
        "trigger": "Ch. 4"
    }, 
    {
        "channels": {
            "Ch. 1": {
                "attenuation": "", 
                "delay": "5", 
                "verbose_name": "-Ramp mon"
            }, 
            "Ch. 2": {
                "attenuation": "", 
                "delay": "5", 
                "verbose_name": "unused"
            }, 
            "Ch. 3": {
                "attenuation": "", 
                "delay": "25+50+10", 
                "verbose_name": "LWV"
            }, 
            "Ch. 4": {
                "attenuation": "", 
                "delay": "74.5+46.5+10", 
                "verbose_name": "SB"
            }
        }, 
        "scopename": "TDS11", 
        "scopetype": "DIAG", 
        "trigger": "Ch. 4"
    }, 
    {
        "channels": {
            "Ch. 1": {
                "attenuation": "", 
                "delay": "5", 
                "verbose_name": "ref"
            }, 
            "Ch. 2": {
                "attenuation": "", 
                "delay": "5", 
                "verbose_name": "Gate mon"
            }, 
            "Ch. 3": {
                "attenuation": "", 
                "delay": "5", 
                "verbose_name": "+Ramp mon"
            }, 
            "Ch. 4": {
                "attenuation": "", 
                "delay": "33.2+1.5+52.5+10", 
                "verbose_name": "SB"
            }
        }, 
        "scopename": "TDS12", 
        "scopetype": "DIAG", 
        "trigger": "Ch. 4"
    }, 
    {
        "channels": {
            "Ch. 1": {
                "attenuation": "", 
                "delay": "5", 
                "verbose_name": ""
            }, 
            "Ch. 2": {
                "attenuation": "", 
                "delay": "5", 
                "verbose_name": "ekspla"
            }, 
            "Ch. 3": {
                "attenuation": "", 
                "delay": "25+50+10", 
                "verbose_name": "SB#2"
            }, 
            "Ch. 4": {
                "attenuation": "", 
                "delay": "74.5+46.5+10", 
                "verbose_name": ""
            }
        }, 
        "scopename": "TDS8", 
        "scopetype": "DIAG", 
        "trigger": "Ch. 4"
    }, 
    {
        "channels": {
            "Ch. 1": {
                "attenuation": "", 
                "delay": "15+75+5", 
                "verbose_name": "Ch. 1"
            }, 
            "Ch. 2": {
                "attenuation": "", 
                "delay": "15+75+5", 
                "verbose_name": "Ch. 2"
            }, 
            "Ch. 3": {
                "attenuation": "", 
                "delay": "", 
                "verbose_name": ""
            }, 
            "Ch. 4": {
                "attenuation": "", 
                "delay": "33.2+1.5+50+5+40+40+5", 
                "verbose_name": "SB"
            }
        }, 
        "scopename": "TDS9", 
        "scopetype": "DIAG", 
        "trigger": "Ch. 4"
    }
]